Simulate populations • birdsize
…
To look up the AOU based on the species’ scientific name, explore the included sd_table dataset:

sd_table
#> # A tibble: 421 × 6
#>    species_id genus      species     mean_mass mean_sd contains_estimates
#>         <int> <chr>      <chr>           <dbl>   <dbl> <lgl>             
#>  1         27 Alopochen  aegyptiaca      1873    133.  TRUE              
#>  2         28 Cairina    moschata        2450    175.  TRUE              
#>  3         77 Ortalis    vetula           563     55   FALSE             
#>  4         85 Oreortyx   pictus           233     16.4 TRUE              
#>  5         90 Colinus    virginianus      172     12.1 TRUE              
#>  6         92 Callipepla squamata         184     13.0 TRUE              
#>  7         94 Callipepla californica      166.    14.3 TRUE              
#>  8         95 Callipepla gambelii         166     11.7 TRUE              
#>  9         96 Cyrtonyx   montezumae       186.    16.8 FALSE             
#> 10        100 Alectoris  chukar           504.    35.6 TRUE              
#> # … with 411 more rows
…
