populations • birdsize
…
To look up the AOU based on the species’ scientific name, explore the
included sd_table dataset:

sd_table
#> # A tibble: 443 × 6
#>      aou genus       species     mean_mass mean_sd contains_estimates
#>    <int> <chr>       <chr>           <dbl>   <dbl> <lgl>             
#>  1  2881 Perdix      perdix           406.    31   FALSE             
#>  2  2882 Alectoris   chukar           504.    36.0 TRUE              
#>  3  2890 Colinus     virginianus      172     12.2 TRUE              
#>  4  2920 Oreortyx    pictus           233     16.6 TRUE              
#>  5  2930 Callipepla  squamata         184     13.1 TRUE              
#>  6  2940 Callipepla  californica      166.    14.3 TRUE              
#>  7  2950 Callipepla  gambelii         166     11.8 TRUE              
#>  8  2960 Cyrtonyx    montezumae       186.    16.8 FALSE             
#>  9  2970 Dendragapus obscurus        1058.    71.0 FALSE             
#> 10  2971 Dendragapus fuliginosus     1056     73.8 FALSE             
#> # … with 433 more rows
…
